%YAML 1.1
%TAG !u! tag:unity3d.com,2011:
--- !u!114 &11400000
MonoBehaviour:
  m_ObjectHideFlags: 0
  m_PrefabParentObject: {fileID: 0}
  m_PrefabInternal: {fileID: 0}
  m_GameObject: {fileID: 0}
  m_Enabled: 1
  m_EditorHideFlags: 0
  m_Script: {fileID: 11500000, guid: 78d5c8dadb03c4328a428367673ec4b2, type: 3}
  m_Name: IOSNativeSettings
  m_EditorClassIdentifier: 
  AppleId: XXXXXXXXX
  InAppProducts: []
  SendFakeEventsInEditor: 1
  RegisteredAchievementsIds: []
  DefaultStoreProductsView: []
  checkInternetBeforeLoadRequest: 0
  ShowStoreKitParams: 0
  ShowGCParams: 0
  ShowAchievementsParams: 0
  ShowUsersParams: 0
  ShowOtherParams: 0
  ShowCameraAndGalleryParams: 0
  UseOneSignal: 0
  DisablePluginLogs: 0
  UseGCRequestCaching: 0
  UsePPForAchievements: 0
  EnablePushNotificationsAPI: 0
  AutoLoadUsersSmallImages: 1
  AutoLoadUsersBigImages: 0
  MaxImageLoadSize: 512
  JPegCompressionRate: 0.8
  GalleryImageFormat: 1
