%YAML 1.1
%TAG !u! tag:unity3d.com,2011:
--- !u!74 &7400000
AnimationClip:
  m_ObjectHideFlags: 0
  m_PrefabParentObject: {fileID: 0}
  m_PrefabInternal: {fileID: 0}
  m_Name: PickupAnim2_zh
  serializedVersion: 4
  m_AnimationType: 2
  m_Compressed: 0
  m_UseHighQualityCurve: 1
  m_RotationCurves: []
  m_CompressedRotationCurves: []
  m_PositionCurves: []
  m_ScaleCurves: []
  m_FloatCurves:
  - curve:
      serializedVersion: 2
      m_Curve:
      - time: 0
        value: 1
        inSlope: 0
        outSlope: 0
        tangentMode: 10
      - time: .0416666679
        value: 1
        inSlope: 0
        outSlope: 0
        tangentMode: 10
      - time: .0833333358
        value: 1
        inSlope: 0
        outSlope: 0
        tangentMode: 10
      - time: .125
        value: 1
        inSlope: -4.99073792
        outSlope: -4.99073792
        tangentMode: 10
      - time: .166666672
        value: .584105134
        inSlope: -7.23906326
        outSlope: -7.23906326
        tangentMode: 10
      - time: .208333328
        value: .396744728
        inSlope: -2.84257555
        outSlope: -2.84257555
        tangentMode: 10
      - time: .25
        value: .347223878
        inSlope: -4.76093769
        outSlope: -4.76093769
        tangentMode: 10
      - time: .291666657
        value: 0
        inSlope: -4.16668749
        outSlope: -4.16668749
        tangentMode: 10
      - time: .333333343
        value: 0
        inSlope: 7.36552238
        outSlope: 7.36552238
        tangentMode: 10
      - time: .375
        value: .613793373
        inSlope: 7.36552238
        outSlope: 7.36552238
        tangentMode: 10
      - time: .416666657
        value: .613793373
        inSlope: 4.63447714
        outSlope: 4.63447714
        tangentMode: 10
      - time: .458333343
        value: 1
        inSlope: 4.63447714
        outSlope: 4.63447714
        tangentMode: 10
      - time: .541666687
        value: 1
        inSlope: 0
        outSlope: 0
        tangentMode: 10
      m_PreInfinity: 2
      m_PostInfinity: 2
    attribute: m_Color.r
    path: 
    classID: 212
    script: {fileID: 0}
  - curve:
      serializedVersion: 2
      m_Curve:
      - time: 0
        value: 0
        inSlope: 7.52052832
        outSlope: 7.52052832
        tangentMode: 10
      - time: .0416666679
        value: .313355356
        inSlope: 7.49146461
        outSlope: 7.49146461
        tangentMode: 10
      - time: .0833333358
        value: .624288738
        inSlope: 7.92880249
        outSlope: 7.92880249
        tangentMode: 10
      - time: .125
        value: .974088848
        inSlope: 4.50853539
        outSlope: 4.50853539
        tangentMode: 10
      - time: .166666672
        value: 1
        inSlope: .310933799
        outSlope: .310933799
        tangentMode: 10
      - time: .208333328
        value: 1
        inSlope: 0
        outSlope: 0
        tangentMode: 10
      - time: .25
        value: 1
        inSlope: 0
        outSlope: 0
        tangentMode: 10
      - time: .291666657
        value: 1
        inSlope: -5.95862103
        outSlope: -5.95862103
        tangentMode: 10
      - time: .333333343
        value: .503448009
        inSlope: -11.9999981
        outSlope: -11.9999981
        tangentMode: 10
      - time: .375
        value: 0
        inSlope: -6.04137754
        outSlope: -6.04137754
        tangentMode: 10
      - time: .416666657
        value: 0
        inSlope: 0
        outSlope: 0
        tangentMode: 10
      - time: .458333343
        value: 0
        inSlope: 0
        outSlope: 0
        tangentMode: 10
      - time: .541666687
        value: 0
        inSlope: 0
        outSlope: 0
        tangentMode: 10
      m_PreInfinity: 2
      m_PostInfinity: 2
    attribute: m_Color.g
    path: 
    classID: 212
    script: {fileID: 0}
  - curve:
      serializedVersion: 2
      m_Curve:
      - time: 0
        value: 0
        inSlope: 1.45732641
        outSlope: 1.45732641
        tangentMode: 10
      - time: .0416666679
        value: .0607219338
        inSlope: .728663206
        outSlope: .728663206
        tangentMode: 10
      - time: .0833333358
        value: .0607219338
        inSlope: 0
        outSlope: 0
        tangentMode: 10
      - time: .125
        value: .0607219338
        inSlope: -.728663146
        outSlope: -.728663146
        tangentMode: 10
      - time: .166666672
        value: 0
        inSlope: 3.43802428
        outSlope: 3.43802428
        tangentMode: 10
      - time: .208333328
        value: .347223878
        inSlope: 6.16553164
        outSlope: 6.16553164
        tangentMode: 10
      - time: .25
        value: .513794243
        inSlope: 5.84710598
        outSlope: 5.84710598
        tangentMode: 10
      - time: .291666657
        value: .83448267
        inSlope: 5.83446884
        outSlope: 5.83446884
        tangentMode: 10
      - time: .333333343
        value: 1
        inSlope: 1.98620701
        outSlope: 1.98620701
        tangentMode: 10
      - time: .375
        value: 1
        inSlope: 0
        outSlope: 0
        tangentMode: 10
      - time: .416666657
        value: 1
        inSlope: -3.31034493
        outSlope: -3.31034493
        tangentMode: 10
      - time: .458333343
        value: .724137783
        inSlope: -6.78620815
        outSlope: -6.78620815
        tangentMode: 10
      - time: .5
        value: .434482574
        inSlope: -3.47586322
        outSlope: -3.47586322
        tangentMode: 10
      - time: .541666687
        value: .434482574
        inSlope: 0
        outSlope: 0
        tangentMode: 10
      m_PreInfinity: 2
      m_PostInfinity: 2
    attribute: m_Color.b
    path: 
    classID: 212
    script: {fileID: 0}
  m_PPtrCurves:
  - curve:
    - time: 0
      value: {fileID: 21300000, guid: ec0a6a2e07a2e8244939b60b9e74352d, type: 3}
    attribute: m_Sprite
    path: 
    classID: 212
    script: {fileID: 0}
  m_SampleRate: 24
  m_WrapMode: 0
  m_Bounds:
    m_Center: {x: 0, y: 0, z: 0}
    m_Extent: {x: 0, y: 0, z: 0}
  m_ClipBindingConstant:
    genericBindings:
    - path: 0
      attribute: 2526845255
      script: {fileID: 0}
      classID: 212
      customType: 0
      isPPtrCurve: 0
    - path: 0
      attribute: 4215373228
      script: {fileID: 0}
      classID: 212
      customType: 0
      isPPtrCurve: 0
    - path: 0
      attribute: 2334886179
      script: {fileID: 0}
      classID: 212
      customType: 0
      isPPtrCurve: 0
    - path: 0
      attribute: 0
      script: {fileID: 0}
      classID: 212
      customType: 23
      isPPtrCurve: 1
    pptrCurveMapping:
    - {fileID: 21300000, guid: ec0a6a2e07a2e8244939b60b9e74352d, type: 3}
  m_AnimationClipSettings:
    serializedVersion: 2
    m_StartTime: 0
    m_StopTime: .541666687
    m_OrientationOffsetY: 0
    m_Level: 0
    m_CycleOffset: 0
    m_LoopTime: 1
    m_LoopBlend: 0
    m_LoopBlendOrientation: 0
    m_LoopBlendPositionY: 0
    m_LoopBlendPositionXZ: 0
    m_KeepOriginalOrientation: 0
    m_KeepOriginalPositionY: 1
    m_KeepOriginalPositionXZ: 0
    m_HeightFromFeet: 0
    m_Mirror: 0
  m_EditorCurves:
  - curve:
      serializedVersion: 2
      m_Curve:
      - time: 0
        value: 1
        inSlope: 0
        outSlope: 0
        tangentMode: 10
      - time: .0416666679
        value: 1
        inSlope: 0
        outSlope: 0
        tangentMode: 10
      - time: .0833333358
        value: 1
        inSlope: 0
        outSlope: 0
        tangentMode: 10
      - time: .125
        value: 1
        inSlope: -4.99073792
        outSlope: -4.99073792
        tangentMode: 10
      - time: .166666672
        value: .584105134
        inSlope: -7.23906326
        outSlope: -7.23906326
        tangentMode: 10
      - time: .208333328
        value: .396744728
        inSlope: -2.84257555
        outSlope: -2.84257555
        tangentMode: 10
      - time: .25
        value: .347223878
        inSlope: -4.76093769
        outSlope: -4.76093769
        tangentMode: 10
      - time: .291666657
        value: 0
        inSlope: -4.16668749
        outSlope: -4.16668749
        tangentMode: 10
      - time: .333333343
        value: 0
        inSlope: 7.36552238
        outSlope: 7.36552238
        tangentMode: 10
      - time: .375
        value: .613793373
        inSlope: 7.36552238
        outSlope: 7.36552238
        tangentMode: 10
      - time: .416666657
        value: .613793373
        inSlope: 4.63447714
        outSlope: 4.63447714
        tangentMode: 10
      - time: .458333343
        value: 1
        inSlope: 4.63447714
        outSlope: 4.63447714
        tangentMode: 10
      - time: .541666687
        value: 1
        inSlope: 0
        outSlope: 0
        tangentMode: 10
      m_PreInfinity: 2
      m_PostInfinity: 2
    attribute: m_Color.r
    path: 
    classID: 212
    script: {fileID: 0}
  - curve:
      serializedVersion: 2
      m_Curve:
      - time: 0
        value: 0
        inSlope: 7.52052832
        outSlope: 7.52052832
        tangentMode: 10
      - time: .0416666679
        value: .313355356
        inSlope: 7.49146461
        outSlope: 7.49146461
        tangentMode: 10
      - time: .0833333358
        value: .624288738
        inSlope: 7.92880249
        outSlope: 7.92880249
        tangentMode: 10
      - time: .125
        value: .974088848
        inSlope: 4.50853539
        outSlope: 4.50853539
        tangentMode: 10
      - time: .166666672
        value: 1
        inSlope: .310933799
        outSlope: .310933799
        tangentMode: 10
      - time: .208333328
        value: 1
        inSlope: 0
        outSlope: 0
        tangentMode: 10
      - time: .25
        value: 1
        inSlope: 0
        outSlope: 0
        tangentMode: 10
      - time: .291666657
        value: 1
        inSlope: -5.95862103
        outSlope: -5.95862103
        tangentMode: 10
      - time: .333333343
        value: .503448009
        inSlope: -11.9999981
        outSlope: -11.9999981
        tangentMode: 10
      - time: .375
        value: 0
        inSlope: -6.04137754
        outSlope: -6.04137754
        tangentMode: 10
      - time: .416666657
        value: 0
        inSlope: 0
        outSlope: 0
        tangentMode: 10
      - time: .458333343
        value: 0
        inSlope: 0
        outSlope: 0
        tangentMode: 10
      - time: .541666687
        value: 0
        inSlope: 0
        outSlope: 0
        tangentMode: 10
      m_PreInfinity: 2
      m_PostInfinity: 2
    attribute: m_Color.g
    path: 
    classID: 212
    script: {fileID: 0}
  - curve:
      serializedVersion: 2
      m_Curve:
      - time: 0
        value: 0
        inSlope: 1.45732641
        outSlope: 1.45732641
        tangentMode: 10
      - time: .0416666679
        value: .0607219338
        inSlope: .728663206
        outSlope: .728663206
        tangentMode: 10
      - time: .0833333358
        value: .0607219338
        inSlope: 0
        outSlope: 0
        tangentMode: 10
      - time: .125
        value: .0607219338
        inSlope: -.728663146
        outSlope: -.728663146
        tangentMode: 10
      - time: .166666672
        value: 0
        inSlope: 3.43802428
        outSlope: 3.43802428
        tangentMode: 10
      - time: .208333328
        value: .347223878
        inSlope: 6.16553164
        outSlope: 6.16553164
        tangentMode: 10
      - time: .25
        value: .513794243
        inSlope: 5.84710598
        outSlope: 5.84710598
        tangentMode: 10
      - time: .291666657
        value: .83448267
        inSlope: 5.83446884
        outSlope: 5.83446884
        tangentMode: 10
      - time: .333333343
        value: 1
        inSlope: 1.98620701
        outSlope: 1.98620701
        tangentMode: 10
      - time: .375
        value: 1
        inSlope: 0
        outSlope: 0
        tangentMode: 10
      - time: .416666657
        value: 1
        inSlope: -3.31034493
        outSlope: -3.31034493
        tangentMode: 10
      - time: .458333343
        value: .724137783
        inSlope: -6.78620815
        outSlope: -6.78620815
        tangentMode: 10
      - time: .5
        value: .434482574
        inSlope: -3.47586322
        outSlope: -3.47586322
        tangentMode: 10
      - time: .541666687
        value: .434482574
        inSlope: 0
        outSlope: 0
        tangentMode: 10
      m_PreInfinity: 2
      m_PostInfinity: 2
    attribute: m_Color.b
    path: 
    classID: 212
    script: {fileID: 0}
  m_EulerEditorCurves: []
  m_Events: []
