%YAML 1.1
%TAG !u! tag:unity3d.com,2011:
--- !u!74 &7400000
AnimationClip:
  m_ObjectHideFlags: 0
  m_PrefabParentObject: {fileID: 0}
  m_PrefabInternal: {fileID: 0}
  m_Name: upup
  serializedVersion: 6
  m_Legacy: 0
  m_Compressed: 0
  m_UseHighQualityCurve: 1
  m_RotationCurves: []
  m_CompressedRotationCurves: []
  m_EulerCurves: []
  m_PositionCurves: []
  m_ScaleCurves:
  - curve:
      serializedVersion: 2
      m_Curve:
      - time: 0
        value: {x: 0.4455859, y: 0.44558585, z: 0.44558585}
        inSlope: {x: -0.017137915, y: -0.017137855, z: -0.017137855}
        outSlope: {x: -0.017137915, y: -0.017137855, z: -0.017137855}
        tangentMode: 0
      - time: 1
        value: {x: 0.428448, y: 0.428448, z: 0.428448}
        inSlope: {x: 0.0002954807, y: 0.00029551052, z: 0.00029551052}
        outSlope: {x: 0.0002954807, y: 0.00029551052, z: 0.00029551052}
        tangentMode: 0
      - time: 1.9666667
        value: {x: 0.4455859, y: 0.4455859, z: 0.4455859}
        inSlope: {x: 0.017728876, y: 0.017728876, z: 0.017728876}
        outSlope: {x: 0.017728876, y: 0.017728876, z: 0.017728876}
        tangentMode: 0
      m_PreInfinity: 2
      m_PostInfinity: 2
      m_RotationOrder: 4
    path: 
  m_FloatCurves: []
  m_PPtrCurves: []
  m_SampleRate: 30
  m_WrapMode: 0
  m_Bounds:
    m_Center: {x: 0, y: 0, z: 0}
    m_Extent: {x: 0, y: 0, z: 0}
  m_ClipBindingConstant:
    genericBindings:
    - path: 0
      attribute: 3
      script: {fileID: 0}
      classID: 4
      customType: 0
      isPPtrCurve: 0
    pptrCurveMapping: []
  m_AnimationClipSettings:
    serializedVersion: 2
    m_AdditiveReferencePoseClip: {fileID: 0}
    m_AdditiveReferencePoseTime: 0
    m_StartTime: 0
    m_StopTime: 1.9666667
    m_OrientationOffsetY: 0
    m_Level: 0
    m_CycleOffset: 0
    m_HasAdditiveReferencePose: 0
    m_LoopTime: 1
    m_LoopBlend: 0
    m_LoopBlendOrientation: 0
    m_LoopBlendPositionY: 0
    m_LoopBlendPositionXZ: 0
    m_KeepOriginalOrientation: 0
    m_KeepOriginalPositionY: 1
    m_KeepOriginalPositionXZ: 0
    m_HeightFromFeet: 0
    m_Mirror: 0
  m_EditorCurves:
  - curve:
      serializedVersion: 2
      m_Curve:
      - time: 0
        value: 0.4455859
        inSlope: -0.017137915
        outSlope: -0.017137915
        tangentMode: 10
      - time: 1
        value: 0.428448
        inSlope: 0.0002954807
        outSlope: 0.0002954807
        tangentMode: 10
      - time: 1.9666667
        value: 0.4455859
        inSlope: 0.017728876
        outSlope: 0.017728876
        tangentMode: 10
      m_PreInfinity: 2
      m_PostInfinity: 2
      m_RotationOrder: 4
    attribute: m_LocalScale.x
    path: 
    classID: 224
    script: {fileID: 0}
  - curve:
      serializedVersion: 2
      m_Curve:
      - time: 0
        value: 0.44558585
        inSlope: -0.017137855
        outSlope: -0.017137855
        tangentMode: 10
      - time: 1
        value: 0.428448
        inSlope: 0.00029551052
        outSlope: 0.00029551052
        tangentMode: 10
      - time: 1.9666667
        value: 0.4455859
        inSlope: 0.017728876
        outSlope: 0.017728876
        tangentMode: 10
      m_PreInfinity: 2
      m_PostInfinity: 2
      m_RotationOrder: 4
    attribute: m_LocalScale.y
    path: 
    classID: 224
    script: {fileID: 0}
  - curve:
      serializedVersion: 2
      m_Curve:
      - time: 0
        value: 0.44558585
        inSlope: -0.017137855
        outSlope: -0.017137855
        tangentMode: 10
      - time: 1
        value: 0.428448
        inSlope: 0.00029551052
        outSlope: 0.00029551052
        tangentMode: 10
      - time: 1.9666667
        value: 0.4455859
        inSlope: 0.017728876
        outSlope: 0.017728876
        tangentMode: 10
      m_PreInfinity: 2
      m_PostInfinity: 2
      m_RotationOrder: 4
    attribute: m_LocalScale.z
    path: 
    classID: 224
    script: {fileID: 0}
  m_EulerEditorCurves: []
  m_HasGenericRootTransform: 0
  m_HasMotionFloatCurves: 0
  m_GenerateMotionCurves: 0
  m_Events: []
